Grafo 666:
K = 4
12 --> 13 14 15 20 21
13 --> 12 21
14 --> 12 20 19 21
15 --> 16 19 12 21
16 --> 19 15 21
17 --> 19 18 20
18 --> 19 17
19 --> 17 18 14 20 15 16
20 --> 19 17 14 12
21 --> 14 13 12 15 16